module gitlab.com/infor-cloud/martian-cloud/tharsis/tharsis-cli

go 1.17

require (
	github.com/caarlos0/log v0.1.10
	github.com/hashicorp/go-slug v0.10.0
	github.com/hashicorp/go-uuid v1.0.3
	github.com/hashicorp/hcl/v2 v2.13.0
	github.com/hasura/go-graphql-client v0.7.2
	github.com/mitchellh/cli v1.1.4
	github.com/olekukonko/tablewriter v0.0.5
	github.com/pkg/browser v0.0.0-20210911075715-681adbf594b8
	github.com/zclconf/go-cty v1.10.0
	gitlab.com/infor-cloud/martian-cloud/tharsis/tharsis-sdk-go v0.5.0
	go.uber.org/zap v1.21.0
	golang.org/x/oauth2 v0.0.0-20220628200809-02e64fa58f26
)

require (
	github.com/Masterminds/goutils v1.1.1 // indirect
	github.com/Masterminds/semver/v3 v3.1.1 // indirect
	github.com/Masterminds/sprig/v3 v3.2.2 // indirect
	github.com/agext/levenshtein v1.2.3 // indirect
	github.com/apparentlymart/go-textseg/v13 v13.0.0 // indirect
	github.com/armon/go-radix v1.0.0 // indirect
	github.com/asaskevich/govalidator v0.0.0-20210307081110-f21760c49a8d // indirect
	github.com/aymanbagabas/go-osc52 v1.2.1 // indirect
	github.com/bgentry/speakeasy v0.1.0 // indirect
	github.com/charmbracelet/lipgloss v0.6.0 // indirect
	github.com/davecgh/go-spew v1.1.1 // indirect
	github.com/fatih/color v1.13.0 // indirect
	github.com/go-ozzo/ozzo-validation/v4 v4.3.0 // indirect
	github.com/golang/protobuf v1.5.2 // indirect
	github.com/google/uuid v1.3.0 // indirect
	github.com/hashicorp/errwrap v1.1.0 // indirect
	github.com/hashicorp/go-cleanhttp v0.5.1 // indirect
	github.com/hashicorp/go-multierror v1.1.1 // indirect
	github.com/hashicorp/go-retryablehttp v0.7.1 // indirect
	github.com/huandu/xstrings v1.3.2 // indirect
	github.com/imdario/mergo v0.3.13 // indirect
	github.com/klauspost/compress v1.15.7 // indirect
	github.com/likexian/gokit v0.25.8 // indirect
	github.com/lucasb-eyer/go-colorful v1.2.0 // indirect
	github.com/mattn/go-colorable v0.1.12 // indirect
	github.com/mattn/go-isatty v0.0.16 // indirect
	github.com/mattn/go-runewidth v0.0.14 // indirect
	github.com/mitchellh/copystructure v1.2.0 // indirect
	github.com/mitchellh/go-wordwrap v1.0.1 // indirect
	github.com/mitchellh/reflectwalk v1.0.2 // indirect
	github.com/muesli/reflow v0.3.0 // indirect
	github.com/muesli/termenv v0.13.0 // indirect
	github.com/pmezard/go-difflib v1.0.0 // indirect
	github.com/posener/complete v1.2.3 // indirect
	github.com/qiangxue/go-env v1.0.1 // indirect
	github.com/rivo/uniseg v0.4.2 // indirect
	github.com/shopspring/decimal v1.3.1 // indirect
	github.com/spf13/cast v1.5.0 // indirect
	github.com/stretchr/testify v1.8.1 // indirect
	go.uber.org/atomic v1.9.0 // indirect
	go.uber.org/multierr v1.8.0 // indirect
	golang.org/x/crypto v0.0.0-20220622213112-05595931fe9d // indirect
	golang.org/x/net v0.0.0-20220624214902-1bab6f366d9e // indirect
	golang.org/x/sys v0.1.0 // indirect
	golang.org/x/text v0.3.7 // indirect
	google.golang.org/appengine v1.6.7 // indirect
	google.golang.org/protobuf v1.28.0 // indirect
	gopkg.in/yaml.v3 v3.0.1 // indirect
	nhooyr.io/websocket v1.8.7 // indirect
)
